../Core/Src/main.c:67:6:HAL_UART_RxCpltCallback	16	static
../Core/Src/main.c:80:5:main	8	static
../Core/Src/main.c:128:6:SystemClock_Config	128	static
../Core/Src/main.c:179:13:MX_USART2_UART_Init	8	static
../Core/Src/main.c:214:13:MX_USART5_UART_Init	8	static
../Core/Src/main.c:247:13:MX_DMA_Init	16	static
../Core/Src/main.c:268:13:MX_GPIO_Init	48	static
../Core/Src/main.c:300:6:Error_Handler	8	static,ignoring_inline_asm
